id,name,model_id:id,group_id:id,perm_read,perm_write,perm_create,perm_unlink
ai_assistant.access_ai_assistant_model_query,access_ai_assistant_model_query,ai_assistant.model_ai_assistant_model_query,base.group_user,1,1,1,1
ai_assistant.access_ai_assistant_model_user_input,access_ai_assistant_model_user_input,ai_assistant.model_ai_assistant_model_user_input,base.group_user,1,1,1,1
ai_assistant.access_ai_assistant_model_results_model,access_ai_assistant_model_results_model,ai_assistant.model_ai_assistant_model_results_model,base.group_user,1,1,1,1